{
	"source": "UE",
	"applications": [
		{
			"app_key": "application.generated.ue.first-person-bp-game-template-15973114.ue4editor.exe",
			"launch_type": "url",
			"url": "steam://launch/",
			"action_manifest_path": "C:/Users/Cheng Qing/Desktop/Unreal Engine/assignment/VRMuseum/Config/SteamVRBindings/steamvr_manifest.json",
			"strings":
			{
				"en_us":
				{
					"name": "First Person BP Game Template-15973114 [UE Editor]"
				}
			}
		}
	]
}